facebook=182
youtube=182
facebook=183
youtube=183
facebook=188
youtube=188
facebook=123
=123
facebook=123
=123
=122
=123
=122
=123
=123
=123
=122
=123
=124
=123
=124
=20
=20
=21
=22
=23
=120
=20
=20
=20
=200
=200
=200
=200
=12
=12
=13
=14
=15
=16
=12
=12
=12
=13
=20
=20
=21
=12
=13
=20
=20
=22
=12
=12
=12
=20
=20
=20
=21
=22
=23
=10
=10
=10
=10
=10
=20
=21
=20
=21
=22
=20
=21
=20
=21
=20
0=20
0=20
